Part2
…
#Explanation From the above analysis the data was prepared by filtering only the NC and SC states and we extracted the genus from the ScientificName Column. From the date we were able to calculate th Age and the AvgCdia (m). From here we were able to get the genera that produces the large crowns quickly. Therefore the recommended genus was Morus.

#2. Species Analysis

nc_sc_data <- nc_sc_data %>%
  mutate(Species = str_extract(ScientificName, "(?<= )[a-z]+"))

species_count <- nc_sc_data %>%
  group_by(Genus) %>%
  summarise(SpeciesCount = n_distinct(Species)) %>%
  arrange(desc(SpeciesCount))
print(species_count)

# A tibble: 85 × 2
   Genus      SpeciesCount
   <chr>             <int>
 1 Pinus                15
 2 Quercus              12
 3 Fraxinus              8
 4 Acer                  7
 5 Populus               5
 6 Prunus                5
 7 Eucalyptus            4
 8 Ulmus                 4
 9 Acacia                3
10 Celtis                3
# ℹ 75 more rows
…
